CHILD MORTALITY RATE (probability of dying by age 5 per 1000 live births)
…
Análisis de Valores Influyentes:

Gráfico Residuals vs Leverage-> Se utiliza para identificar casos influyentes.

Valores atípicos-> Las observaciones cuyos residuos estandarizados son mayores que 3 en valor absoluto son posibles valores atípicos.En nuestro caso resaltan 3 puntos más extremos(#1,#9,#34),con resdiduos estandarizados por debajo de 3, excepto el#9 (4.06)

Puntos de apalacamiento-> Se puede detectar examinando la estadistica de “.hat”. Un valor superior a 2(p+1)/n indicaría una observación con alto apalancamiento. En nuestro caso 2(42+1)/40=2.15. Ninguno supera el 0.45

Valores influyentes-> Es un valor cuya inclusión o exclusión altera los resultados del análisis de regresión. No todos los valores atípicos influyen en el análisis de regresión. La “distancia de Cook” determina la influencia de un valor. Esta métrica define la influencia como una combinación de apalancamiento y tamaño residual. En nuestro caso ningun punto es influyente, porque están dentro de los límites marcados por la distancia de Cook 4/(n-p-1) = 4/(40-42-1)=-1,33

#### Tabla con las métricas del diagnóstico
model_diag_metrics<-augment(lm_model_lasso)
model_diag_metrics

## # A tibble: 40 x 15
##    .rownames Rate_Mort_Child Mort_Congenital~ Mort_Diarrhoeal~ Mort_Meningitis~
##    <chr>               <dbl>            <dbl>            <dbl>            <dbl>
##  1 1                    99.4              4.3              9.8              2.9
##  2 2                    95.4              4.4              9.3              2.7
##  3 3                    91.8              4.4              8.7              2.9
##  4 4                    88.5              4.4              8.2              2.6
##  5 5                    85.6              4.5              7.8              2  
##  6 7                    80.5              4.5              6.9              1.8
##  7 9                    19.4              3.5              0.8              0.3
##  8 11                   15.9              3.4              0.6              0.2
##  9 12                   15.4              3.3              0.6              0.2
## 10 13                   15                3.3              0.6              0.2
## # ... with 30 more rows, and 10 more variables: Mort_Other_rate <dbl>,
## #   Mort_Respiratory_rate <dbl>, Life_expectancy_at_birth <dbl>, .fitted <dbl>,
## #   .se.fit <dbl>, .resid <dbl>, .hat <dbl>, .sigma <dbl>, .cooksd <dbl>,
## #   .std.resid <dbl>
…
model_diag_Forward<-augment(lm_model_Forward)
model_diag_Forward

## # A tibble: 40 x 17
##    .rownames Rate_Mort_Child Response Mort_Congenital~ Mort_Diarrhoeal~
##    <chr>               <dbl>    <int>            <dbl>            <dbl>
##  1 1                    99.4       47              4.3              9.8
##  2 2                    95.4       56              4.4              9.3
##  3 3                    91.8       62              4.4              8.7
##  4 4                    88.5       66              4.4              8.2
##  5 5                    85.6       72              4.5              7.8
##  6 7                    80.5       73              4.5              6.9
##  7 9                    19.4       62              3.5              0.8
##  8 11                   15.9       78              3.4              0.6
##  9 12                   15.4       84              3.3              0.6
## 10 13                   15         85              3.3              0.6
## # ... with 30 more rows, and 12 more variables: Mort_Other_rate <dbl>,
## #   Mort_Respiratory_rate <dbl>, Inm_DTP3_coverage <int>,
## #   Inm_Hib3_coverage <int>, Inm_PCV3_coverage <dbl>, .fitted <dbl>,
## #   .se.fit <dbl>, .resid <dbl>, .hat <dbl>, .sigma <dbl>, .cooksd <dbl>,
## #   .std.resid <dbl>
…
model_diag_Forward<-augment(lm_model_Forward)
model_diag_Forward

## # A tibble: 40 x 17
##    .rownames log.Rate_Mort_C~ Response Mort_Congenital~ Mort_Diarrhoeal~
##    <chr>                <dbl>    <int>            <dbl>            <dbl>
##  1 1                     4.60       47              4.3              9.8
##  2 2                     4.56       56              4.4              9.3
##  3 3                     4.52       62              4.4              8.7
##  4 4                     4.48       66              4.4              8.2
##  5 5                     4.45       72              4.5              7.8
##  6 7                     4.39       73              4.5              6.9
##  7 9                     2.97       62              3.5              0.8
##  8 11                    2.77       78              3.4              0.6
##  9 12                    2.73       84              3.3              0.6
## 10 13                    2.71       85              3.3              0.6
## # ... with 30 more rows, and 12 more variables: Mort_Other_rate <dbl>,
## #   Mort_Respiratory_rate <dbl>, Inm_DTP3_coverage <int>,
## #   Inm_Hib3_coverage <int>, Inm_PCV3_coverage <dbl>, .fitted <dbl>,
## #   .se.fit <dbl>, .resid <dbl>, .hat <dbl>, .sigma <dbl>, .cooksd <dbl>,
## #   .std.resid <dbl>
…
model_diag_Reg<-augment(model_best_regsubsets)
model_diag_Reg

## # A tibble: 40 x 19
##    .rownames Rate_Mort_Child Surveillance Mort_Congenital~ Mort_Diarrhoeal~
##    <chr>               <dbl>        <int>            <dbl>            <dbl>
##  1 1                    99.4           61              4.3              9.8
##  2 2                    95.4           65              4.4              9.3
##  3 3                    91.8           71              4.4              8.7
##  4 4                    88.5           69              4.4              8.2
##  5 5                    85.6           77              4.5              7.8
##  6 7                    80.5           83              4.5              6.9
##  7 9                    19.4           59              3.5              0.8
##  8 11                   15.9           82              3.4              0.6
##  9 12                   15.4           87              3.3              0.6
## 10 13                   15             89              3.3              0.6
## # ... with 30 more rows, and 14 more variables: Mort_HIVAIDS_dis_rate <dbl>,
## #   Mort_Malaria_rate <dbl>, Mort_Other_rate <dbl>,
## #   Mort_Prematurity_rate <dbl>, Inm_PCV3_coverage <dbl>,
## #   Maternal_Mort_Rate <dbl>, ANAEMIA_PW <dbl>, .fitted <dbl>, .se.fit <dbl>,
## #   .resid <dbl>, .hat <dbl>, .sigma <dbl>, .cooksd <dbl>, .std.resid <dbl>
…
